Tutorial: web scraping controlando un navegador web con {RSelenium} en R | Blog
…
[1] "04. Personal y remuneraciones"

Extraer tablas

Si es que el sitio web tiene datos en forma de tabla, podemos extraerlo fácilmente con la función html_table()

tabla <- sitio |> 
  html_table()

tabla[[1]]

# A tibble: 100 × 19
   Estamento      `Nombre completo`      `Cargo o función` `Grado EUS o jornada`
   <chr>          <chr>                  <chr>                             <int>
 1 Auxiliar       ACEVEDO BERTRIN, ANDR… CUADRILLA OPERAC…                    14
 2 Administrativo AEDO ACEVEDO, ESTEFAN… ADMINISTRATIVA H…                    11
 3 Administrativo AGUILAR MARTINEZ, ELI… ADMINISTRATIVO D…                    12
 4 Administrativo AHUMADA COFRE, GERALD… ADMINISTRATIVA V…                    16
 5 Profesional    ALARCON HERRERA, CARL… PROFESIONAL DE A…                     6
 6 Administrativo ALARCON NEIRA, CLAUDI… INSPECTOR VIGILA…                    14
 7 Auxiliar       ALCAINO MARTINEZ, EDU… AUXILIAR ASEO Y …                    14
 8 Administrativo ALDERETE ALMENDRAS, N… ADMINISTRATIVA V…                    16
 9 Administrativo ALTAMIRANO ROJAS, ANN… SECRETARIA ADMIN…                    11
10 Administrativo ALVAREZ FARFAN, CYNTH… INSPECTORA FERIA…                    16
# ℹ 90 more rows
# ℹ 15 more variables: `Calificación profesional o formación` <chr>,
#   Región <chr>, `Asignaciones especiales` <chr>,
#   `Remuneración bruta mensualizada` <chr>,
#   `Remuneración líquida mensualizada` <chr>,
#   `Remuneraciones adicionales` <chr>, `Remuneración Bonos incentivos` <chr>,
#   `Derecho a horas extraordinarias` <chr>, …
…
