Análisis y visualización de correlaciones en R | Bastián Olea
…
# dejar sólo la medición más reciente de cada variable en cada comuna
siedu_3 <- siedu_2 |> 
  group_by(codigo_comuna, variable) |> 
  slice_max(año) |> 
  ungroup()

# seleccionar columnas
siedu_4 <- siedu_3 |> 
  select(cut_comuna = codigo_comuna, variable, valor)

Veamos cómo van quedando los datos:

sinim_4

# A tibble: 3,806 × 3
   cut_comuna variable                                                     valor
        <dbl> <chr>                                                        <dbl>
 1       1101 Densidad de Población por Km2                               1.02e2
 2       1101 Disponibilidad Presupuestaria Municipal por Habitante (M$)  4.27e2
 3       1101 Ingresos Propios Permanentes per Cápita (IPPP)              1.92e2
 4       1101 Inversión Municipal                                         2.57e6
 5       1101 Participación de Ingresos por Transferencias en el Ingreso… 4.38e1
 6       1101 Participación del Fondo Común Municipal en el Ingreso Total 6.4 e0
 7       1101 Población Comunal, Estimada por el INE                      2.31e5
 8       1101 Porcentaje de Ejecución Presupuestaria Devengada Municipal  7.58e1
 9       1101 Porcentaje de Hogares de 0-40% de Ingresos respecto del To… 4.44e1
10       1101 Porcentaje de Puntajes PSU Igual o Superior a 450 Puntos e… 7.61e1
# ℹ 3,796 more rows

siedu_4

# A tibble: 891 × 3
   cut_comuna variable                                                     valor
        <dbl> <chr>                                                        <dbl>
 1       1101 Consumo de energía eléctrica per cápita residencial         7.09e2
 2       1101 Número de microbasurales por cada 10.000 habitantes         1.21e1
 3       1101 Población estimada de migrantes internacionales por comuna  4.46e4
 4       1101 Porcentaje de la población en situación de pobreza multidi… 1.97e1
 5       1101 Porcentaje de viviendas en situación de hacinamiento        9.92e0
 6       1101 Superficie de áreas verdes públicas por habitante           2.13e0
 7       1101 Tasa de conexiones residenciales fijas de internet por cad… 2.14e1
 8       1101 Tasa de víctimas de delitos violentos por casos policiales… 1.46e2
 9       1101 Tiempo de viaje en hora punta mañana                        3   e1
10       1107 Consumo de energía eléctrica per cápita residencial         4.84e2
# ℹ 881 more rows
…
En la tabla anterior (muy rudimentaria aún) podemos ver el cruce entre todas las variables. La tabla se lee partiendo por una fila, que representa una de las variables, y cada vez que esta fila se intercepta con una columna, el valor representa el cruce de la variable de la fila con la variable de la columna.

Como estamos cruzando todas con todas las variables, obviamente cada variable también se cruza consigo misma, lo cual resulta en un NA.

Como el resultado es muy grande, y la cantidad de columnas muy alta, {corrr} ofrece la función stretch() para convertir fácilmente el resultado a un formato largo:

correlación |> stretch()

# A tibble: 400 × 3
   x                             y                                                  r
   <chr>                         <chr>                                          <dbl>
 1 Densidad de Población por Km2 Densidad de Población por Km2                NA     
 2 Densidad de Población por Km2 Disponibilidad Presupuestaria Municipal por… -0.0969
 3 Densidad de Población por Km2 Ingresos Propios Permanentes per Cápita (IP… -0.0445
 4 Densidad de Población por Km2 Inversión Municipal                           0.222 
 5 Densidad de Población por Km2 Participación de Ingresos por Transferencia…  0.0415
 6 Densidad de Población por Km2 Participación del Fondo Común Municipal en … -0.255 
 7 Densidad de Población por Km2 Población Comunal, Estimada por el INE        0.480 
 8 Densidad de Población por Km2 Porcentaje de Ejecución Presupuestaria Deve…  0.192 
 9 Densidad de Población por Km2 Porcentaje de Hogares de 0-40% de Ingresos … -0.311 
10 Densidad de Población por Km2 Porcentaje de Puntajes PSU Igual o Superior…  0.0238
# ℹ 390 more rows
…
