Comparar el rendimiento expresiones en R | Bastián Olea
…
        Al programar algo, siempre existen varias formas de lograr un mismo objetivo. Un criterio para elegir una forma por sobre otra puede ser el rendimiento: si hay dos formas de hacer algo, elegir la forma que se ejecute más rápido.1

Para comparar el rendimiento de distintas expresiones en R, realizamos un benchmark, al cual le entregamos las expresiones que queremos comparar, y nos entregará un detalle de su velocidad de ejecución, consumo de memoria, y otros.

Como ejemplo, crearemos un dataframe de 100 millones de filas, con dos variables.

library(dplyr)

# crear datos
datos <- tibble(var1 = runif(n = 1e8),
                var2 = runif(n = 1e8))

datos

# A tibble: 100,000,000 × 2
     var1  var2
    <dbl> <dbl>
 1 0.0725 0.628
 2 0.664  0.358
 3 0.169  0.119
 4 0.0369 0.879
 5 0.708  0.546
 6 0.607  0.835
 7 0.955  0.839
 8 0.198  0.197
 9 0.564  0.456
10 0.788  0.960
# ℹ 99,999,990 more rows
…
