…
<img src="tutorial_ggplot.markdown_strict_files/figure-markdown_strict/unnamed-chunk-56-1.png" width="768" />

### Gráfico de barras horizontal con color

contar delitos por año, para elegir delitos similares

``` r
delinc |> 
  group_by(delito) |> 
  summarize(n = sum(delito_n)) |> 
  arrange(desc(n))
```

    # A tibble: 50 × 2
       delito                                              n
       <fct>                                           <dbl>
     1 Amenazas o riña                               944138 
     2 Consumo de alcohol y drogas en la vía pública 917037.
     3 Hurtos                                        856092.
     4 Daños                                         764460 
     5 Violencia intrafamiliar a mujer               666574 
     6 Robos con violencia o intimidación            441673 
     7 Lesiones leves                                376066 
     8 Robo de objetos de o desde vehículo           329299 
     9 Robo en lugar habitado                        297576 
    10 Robos en lugar no habitado                    289593 
    # ℹ 40 more rows
…
