Gráfico de densidad tipo Joy Division en {ggplot2} | Bastián Olea
…
En el código anterior se cargó el conjunto de datos, se filtraron las 80 comunas con más población, para no tener un gráfico eterno, y se aplicó el diseño de encuestas complejas con as_survey().

Una vez que tenemos el objeto survey que nos permite trabajar con los datos usando la metodología apropiada de factor de expansión, calculamos la cantidad de personas a la que representa cada observación en la encuesta. Usaremos la variable de ingresos propios de la ocupación principal, yoprcor.

# calcular cantidades usando factor de expansión
casen_ingresos <- casen_svy |> 
  group_by(comuna, yoprcor) |> 
  summarize(n = survey_total(),
            p = survey_mean())

Si realizamos los datos, nos encontramos con las observaciones de la encuesta, que incluyen la información de la comuna y la variable de ingresos que elegimos, pero además, tenemos la columna n que nos indica a cuántas personas representa cada observación de la encuesta, gracias a la aplicación del factor de expansión.

# A tibble: 9,155 × 6
# Groups:   comuna [80]
   comuna        yoprcor     n  n_se        p     p_se
   <chr>           <dbl> <dbl> <dbl>    <dbl>    <dbl>
 1 Alto Hospicio   14789    36  36   0.000260 0.000233
 2 Alto Hospicio   20000    32  32   0.000231 0.000213
 3 Alto Hospicio   30000   211 109.  0.00152  0.000691
 4 Alto Hospicio   40000    36  36   0.000260 0.000233
 5 Alto Hospicio   45000    36  36   0.000260 0.000233
 6 Alto Hospicio   50000   527 262.  0.00380  0.00124 
 7 Alto Hospicio   60000   405 333.  0.00292  0.00207 
 8 Alto Hospicio   70000    48  48   0.000346 0.000334
 9 Alto Hospicio   75000    77  52.1 0.000556 0.000332
10 Alto Hospicio   80000   264 136.  0.00191  0.000779
# ℹ 9,145 more rows
…
