…
{{< info "La función `bind_rows()` une varias tablas con las mismas columnas, apilándolas una debajo de la otra, como una torta 🍰" >}}

``` r
# cargar hojas individualmente
datos_1 <- read_excel("datos_falsos.xlsx", sheet = 1)
datos_2 <- read_excel("datos_falsos.xlsx", sheet = 2)
datos_3 <- read_excel("datos_falsos.xlsx", sheet = 3) 

library(dplyr)

# unir todas las hojas
bind_rows(datos_1, datos_2, datos_3)
```

    # A tibble: 52 × 3
       variable_a variable_b variable_c
       <chr>           <dbl>      <dbl>
     1 b              0.0980      0.605
     2 f             -1.56        0.815
     3 i              0.245       1.05 
     4 m              0.178       0.779
     5 x             -0.587       0.443
     6 l             -1.27        0.591
     7 y             -0.317      -0.276
     8 j              0.0841     -0.339
     9 z             -0.0351     -0.278
    10 k             -1.24        0.353
    # ℹ 42 more rows
…
datos_13b <- datos_13 |> 
  mutate(variable_c = as.numeric(variable_c))
```

    Warning: There was 1 warning in `mutate()`.
    ℹ In argument: `variable_c = as.numeric(variable_c)`.
    Caused by warning:
    ! NAs introduced by coercion

``` r
bind_rows(datos_11, datos_12, datos_13b)
```

    # A tibble: 51 × 3
       variable_a variable_b variable_c
       <chr>           <dbl>      <dbl>
     1 v               0.227     -0.374
     2 q               0.299     -1.09 
     3 k              -1.03       0.117
     4 m              -0.828      1.24 
     5 k              -0.475     -0.631
     6 d               0.448      0.918
     7 i               0.845     -0.682
     8 l               0.232      0.885
     9 r               0.150     -0.652
    10 w              -0.474     -0.667
    # ℹ 41 more rows
…
    [[3]]
    # A tibble: 29 × 3
       variable_a variable_b variable_c
       <chr>           <dbl>      <dbl>
     1 w              0.235     -0.204 
     2 m             -0.107      0.0811
     3 r             -0.0999    -1.58  
     4 p              0.731     -0.0249
     5 w              0.146     -0.730 
     6 y             -0.160     -1.63  
     7 c              0.915      0.451 
     8 h             -0.144     -1.00  
     9 x              1.14       0.636 
    10 w              0.106     -0.135 
    # ℹ 19 more rows

¡Cargamos 3 hojas! El resultado es una **lista** con tres elementos. Ahora **unimos** el resultado con `list_rbind()` para que quede una sola tabla con el contenido de cada hoja:

``` r
datos |> list_rbind() # unir todo al final
```

    # A tibble: 52 × 3
       variable_a variable_b variable_c
       <chr>           <dbl>      <dbl>
     1 b              0.0980      0.605
     2 f             -1.56        0.815
     3 i              0.245       1.05 
     4 m              0.178       0.779
     5 x             -0.587       0.443
     6 l             -1.27        0.591
     7 y             -0.317      -0.276
     8 j              0.0841     -0.339
     9 z             -0.0351     -0.278
    10 k             -1.24        0.353
    # ℹ 42 more rows
…
map(hojas,
    ~{
      read_excel("datos_falsos.xlsx",sheet = .x) |> 
        mutate(variable_c = as.numeric(variable_c)) # corregir columna
    }
) |> list_rbind()
```

    Warning: There was 1 warning in `mutate()`.
    ℹ In argument: `variable_c = as.numeric(variable_c)`.
    Caused by warning:
    ! NAs introduced by coercion

    # A tibble: 350 × 3
       variable_a variable_b variable_c
       <chr>           <dbl>      <dbl>
     1 b              0.0980      0.605
     2 f             -1.56        0.815
     3 i              0.245       1.05 
     4 m              0.178       0.779
     5 x             -0.587       0.443
     6 l             -1.27        0.591
     7 y             -0.317      -0.276
     8 j              0.0841     -0.339
     9 z             -0.0351     -0.278
    10 k             -1.24        0.353
    # ℹ 340 more rows
…
