…
Una vez que hayamos extraído los elementos del sitio que necesitamos, y considerando que los elementos extraídos tienen todos el mismo largo (dado que cada animal del sitio tenía exactamente un título, un párrafo y un enlace), podemos unir todos los resultados en una tabla para **construir un dataframe a partir de los datos scrapeados.**

``` r
tabla_animales <- tibble(animales,
                         textos, 
                         enlaces)

tabla_animales
```

    # A tibble: 42 × 3
       animales                    textos                                    enlaces
       <chr>                       <chr>                                     <chr>  
     1 Degú                        El degú (< mapudungun dewü, rata, ratón)… https:…
     2 Chinchilla de cola corta    La chinchilla de cola corta (Chinchilla … https:…
     3 Chinchilla de cola larga    La chinchilla de cola larga (Chinchilla … https:…
     4 Zorro chilote               El zorro chilote o zorro de Darwin (Lyca… https:…
     5 Delfín chileno              El delfín chileno (Cephalorhynchus eutro… https:…
     6 Rana chilena                La rana chilena (Calyptocephalella gayi)… https:…
     7 Remolinera costera chilena  La remolinera costera chilena (Cinclodes… https:…
     8 Cachudito de juan fernández El cachudito de Juan Fernández (Anairete… https:…
     9 Turca                       La turca o huet-huet turca (Pteroptochos… https:…
    10 Chiricoca                   La chiricoca (Ochetorhynchus melanurus),… https:…
    # ℹ 32 more rows
…
