Cómo dejar de repetirte y escribir código más eficiente en R | Bastián Olea
…
genero_long

# A tibble: 95 × 4
   region             genero         poblacion tipo       
   <chr>              <chr>              <dbl> <chr>      
 1 País               Masculino        6836779 Binario cis
 2 País               Femenino         7455952 Binario cis
 3 País               Transmasculino     31955 Trans      
 4 País               Transfemenino      13314 Trans      
 5 País               No binario         15395 Trans      
 6 Arica y Parinacota Masculino          89224 Binario cis
 7 Arica y Parinacota Femenino           94037 Binario cis
 8 Arica y Parinacota Transmasculino       414 Trans      
 9 Arica y Parinacota Transfemenino        200 Trans      
10 Arica y Parinacota No binario           146 Trans      
# ℹ 85 more rows
…
