…
``` r
datos <- tibble(valor) |> 
  # procesar por fila
  rowwise() |> 
  # por fila, elegir tres sílabas al azar y unirlas en un texto
  mutate(nombre = sample(c("ma", "pa", "che", "cha"), 3, F) |> paste(collapse = "")) |> 
  # desagrupar y creat otra columna que distribuya los datos en tres grupos
  ungroup() |>
  mutate(grupo = sample(c("ma", "pa", "che"), n(), T))

datos
```

    # A tibble: 100 × 3
       valor nombre   grupo
       <int> <chr>    <chr>
     1    45 chapache pa   
     2    95 chechapa ma   
     3    83 chamapa  ma   
     4    92 mapache  pa   
     5    40 chamache che  
     6    42 pachama  pa   
     7    75 mapacha  che  
     8    65 machepa  che  
     9    55 chachema che  
    10    18 chapama  che  
    # ℹ 90 more rows
…
Esto nos dará una cifra que operará como el umbral respecto del cual, si un valor es mayor a esta cifra, se clasificará como outlier. Es conveniente calcular este umbral dentro del dataframe, porque si queremos calcular outliers desagregados por otra variable, simplemente mantenemos la fórmula y agregamos antes un `group_by()` para realizar el cálculo por grupos.

Crearemos una columna que simplemente nos diga si los valores son mayores o menores al umbral:

``` r
datos_outliers <- datos_outliers |> 
  mutate(outlier = valor >= umbral)

datos_outliers
```

    # A tibble: 100 × 5
       valor nombre   grupo umbral outlier
       <int> <chr>    <chr>  <dbl> <lgl>  
     1    45 chapache pa       167 FALSE  
     2    95 chechapa ma       167 FALSE  
     3    83 chamapa  ma       167 FALSE  
     4    92 mapache  pa       167 FALSE  
     5    40 chamache che      167 FALSE  
     6    42 pachama  pa       167 FALSE  
     7    75 mapacha  che      167 FALSE  
     8    65 machepa  che      167 FALSE  
     9    55 chachema che      167 FALSE  
    10    18 chapama  che      167 FALSE  
    # ℹ 90 more rows
…
