…
<img src="index.markdown_strict_files/figure-markdown_strict/unnamed-chunk-3-1.png" width="768" />

Obtenemos una tenebrosa nube que correlaciona los puntajes de la prueba de comprensión lectora y la de matemátitas. En este gráfico cada punto es un estudiante, y la ubicación del punto corresponde al puntaje que obtuvo en las pruebas de Matemática y Comprensión Lectora. Como los datos vienen con más variables de caracterización de las observaciones, podemos filtrar los datos por comuna:

``` r
library(dplyr)

datos |> 
  filter(nombre_comuna == "La Florida")
```

    # A tibble: 6,306 × 12
       nombre_comuna codigo_comuna nombre_region        codigo_region   año cod_sexo
       <chr>                 <dbl> <chr>                <chr>         <dbl> <chr>   
     1 La Florida            13110 Metropolitana de Sa… 13             2024 Masculi…
     2 La Florida            13110 Metropolitana de Sa… 13             2024 Masculi…
     3 La Florida            13110 Metropolitana de Sa… 13             2024 Femenino
     4 La Florida            13110 Metropolitana de Sa… 13             2024 Masculi…
     5 La Florida            13110 Metropolitana de Sa… 13             2024 Femenino
     6 La Florida            13110 Metropolitana de Sa… 13             2024 Femenino
     7 La Florida            13110 Metropolitana de Sa… 13             2024 Femenino
     8 La Florida            13110 Metropolitana de Sa… 13             2024 Femenino
     9 La Florida            13110 Metropolitana de Sa… 13             2024 Femenino
    10 La Florida            13110 Metropolitana de Sa… 13             2024 Femenino
    # ℹ 6,296 more rows
    # ℹ 6 more variables: promedio_notas <dbl>, paes_complectora <dbl>,
    #   paes_matematica1 <dbl>, paes_matematica2 <dbl>, paes_histciesoc <dbl>,
    #   paes_ciencias <dbl>
…
