…
# seleccionar columnas
siedu_4 <- siedu_3 |> 
  select(cut_comuna, variable, valor)
```

Veamos cómo van quedando los datos:

``` r
sinim_4
```

    # A tibble: 3,806 × 3
       cut_comuna variable                                                     valor
       <chr>      <chr>                                                        <dbl>
     1 01101      Densidad de Población por Km2                               1.02e2
     2 01101      Disponibilidad Presupuestaria Municipal por Habitante (M$)  4.27e2
     3 01101      Ingresos Propios Permanentes per Cápita (IPPP)              1.92e2
     4 01101      Inversión Municipal                                         2.57e6
     5 01101      Participación de Ingresos por Transferencias en el Ingreso… 4.38e1
     6 01101      Participación del Fondo Común Municipal en el Ingreso Total 6.4 e0
     7 01101      Población Comunal, Estimada por el INE                      2.31e5
     8 01101      Porcentaje de Ejecución Presupuestaria Devengada Municipal  7.58e1
     9 01101      Porcentaje de Hogares de 0-40% de Ingresos respecto del To… 4.44e1
    10 01101      Porcentaje de Puntajes PSU Igual o Superior a 450 Puntos e… 7.61e1
    # ℹ 3,796 more rows

``` r
siedu_4
```

    # A tibble: 891 × 3
       cut_comuna variable                                                     valor
       <chr>      <chr>                                                        <dbl>
     1 10101      Consumo de energía eléctrica per cápita residencial        8.91e+2
     2 10101      Número de microbasurales por cada 10.000 habitantes        1.5 e-1
     3 10101      Población estimada de migrantes internacionales por comuna 1.27e+4
     4 10101      Porcentaje de la población en situación de pobreza multid… 2.03e+1
     5 10101      Porcentaje de viviendas en situación de hacinamiento       6.43e+0
     6 10101      Superficie de áreas verdes públicas por habitante          7.92e+0
     7 10101      Tasa de conexiones residenciales fijas de internet por ca… 1.89e+1
     8 10101      Tasa de víctimas de delitos violentos por casos policiale… 7.71e+1
     9 10101      Tiempo de viaje en hora punta mañana                       6   e+1
    10 10109      Consumo de energía eléctrica per cápita residencial        1.37e+3
    # ℹ 881 more rows
…
En la tabla anterior (muy rudimentaria aún) podemos ver el cruce entre todas las variables. La tabla se lee partiendo por una fila, que representa una de las variables, y cada vez que esta fila se intercepta con una columna, el valor representa el cruce de la variable de la fila con la variable de la columna.

Como estamos cruzando todas con todas las variables, obviamente cada variable también se cruza consigo misma, lo cual resulta en un `NA`.

Como el resultado es muy grande, y la cantidad de columnas muy alta, `{corrr}` ofrece la función `stretch()` para convertir fácilmente el resultado a un formato largo:

``` r
correlación |> stretch()
```

    # A tibble: 400 × 3
       x                             y                                                  r
       <chr>                         <chr>                                          <dbl>
     1 Densidad de Población por Km2 Densidad de Población por Km2                NA     
     2 Densidad de Población por Km2 Disponibilidad Presupuestaria Municipal por… -0.0969
     3 Densidad de Población por Km2 Ingresos Propios Permanentes per Cápita (IP… -0.0445
     4 Densidad de Población por Km2 Inversión Municipal                           0.222 
     5 Densidad de Población por Km2 Participación de Ingresos por Transferencia…  0.0415
     6 Densidad de Población por Km2 Participación del Fondo Común Municipal en … -0.255 
     7 Densidad de Población por Km2 Población Comunal, Estimada por el INE        0.480 
     8 Densidad de Población por Km2 Porcentaje de Ejecución Presupuestaria Deve…  0.192 
     9 Densidad de Población por Km2 Porcentaje de Hogares de 0-40% de Ingresos … -0.311 
    10 Densidad de Población por Km2 Porcentaje de Puntajes PSU Igual o Superior…  0.0238
    # ℹ 390 more rows
…
