Crea planillas de Excel con formato personalizado desde R con {openxlsx} | Bastián Olea
…
Sin embargo, existe el 
paquete {openxlsx}, que además de leer y escribir archivos Excel, nos entrega funciones para generar archivos Excel desde R que contengan todo tipo de formato, estilo de tablas, y manipulación celda por celda del archivo resultante, con lo que podemos generar planillas de Excel atractivas desde R.

La gracia es que podremos usar estas herramientas de forma reproducible (poder re-hacer gratis la planilla con datos actualizados o corregidos), y también podremos combinar la programación de R para crear estilos condicionales, crear cientos de archivos Excel, o planillas de cientos de hojas, y mucho más.

Carguemos un conjunto de datos de indicadores de calidad de vida urbana de Chile, del 
Sistema de Indicadores y Estándares de Desarrollo Urbano.

library(arrow)

datos <- read_parquet("https://github.com/bastianolea/siedu_indicadores_urbanos/raw/main/datos/siedu_indicadores_desarrollo_urbano.parquet")

datos

# A tibble: 6,701 × 12
   codigo_comuna codigo_region codigo_provincia nombre_region nombre_provincia
           <dbl> <chr>         <chr>            <chr>         <chr>           
 1          1107 01            011              Tarapacá      Iquique         
 2          1107 01            011              Tarapacá      Iquique         
 3          1107 01            011              Tarapacá      Iquique         
 4          1107 01            011              Tarapacá      Iquique         
 5          1107 01            011              Tarapacá      Iquique         
 6          1107 01            011              Tarapacá      Iquique         
 7          1107 01            011              Tarapacá      Iquique         
 8          1107 01            011              Tarapacá      Iquique         
 9          1107 01            011              Tarapacá      Iquique         
10          1107 01            011              Tarapacá      Iquique         
# ℹ 6,691 more rows
# ℹ 7 more variables: nombre_comuna <chr>, id <chr>, año <dbl>, variable <chr>,
#   valor <dbl>, medida <chr>, estandar <chr>
…
library(dplyr)

datos <- datos |> 
  # filtrar variables
  filter(variable %in% c("Distancia a plazas públicas",
                         "Número de víctimas mortales en siniestros de tránsito por cada 100.000 habitantes",
                         "Porcentaje de cobertura de la red de ciclovía sobre la red vial")) |> 
  # dejar sólo valores más recientes por comuna
  group_by(nombre_region, nombre_comuna, variable) |>
  filter(año == max(año)) |>
  ungroup()

datos |> select(-starts_with("codigo"))

# A tibble: 340 × 9
   nombre_region      nombre_provincia nombre_comuna id      año variable  valor
   <chr>              <chr>            <chr>         <chr> <dbl> <chr>     <dbl>
 1 Tarapacá           Iquique          Alto Hospicio BPU_…  2018 Distanc… 275.  
 2 Tarapacá           Iquique          Alto Hospicio DE_28  2021 Número …   9.70
 3 Tarapacá           Iquique          Alto Hospicio EA_93  2021 Porcent…   1.46
 4 La Araucanía       Malleco          Angol         BPU_…  2018 Distanc… 342.  
 5 La Araucanía       Malleco          Angol         DE_28  2021 Número …  12.4 
 6 La Araucanía       Malleco          Angol         EA_93  2021 Porcent…   4.59
 7 Antofagasta        Antofagasta      Antofagasta   BPU_…  2018 Distanc… 426.  
 8 Antofagasta        Antofagasta      Antofagasta   DE_28  2021 Número …   7.84
 9 Antofagasta        Antofagasta      Antofagasta   EA_93  2021 Porcent…   2.74
10 Arica y Parinacota Arica            Arica         BPU_…  2018 Distanc… 324.  
# ℹ 330 more rows
# ℹ 2 more variables: medida <chr>, estandar <chr>

Ahora pivotemos los datos para crear una típica tabla de Excel donde los indicadores estén en columnas hacia el lado, mientras que hacia abajo están las unidades u observaciones; en este caso, comunas.

library(tidyr)

datos <- datos |> 
  select(nombre_region, nombre_comuna, codigo_comuna, variable, valor) |> 
  pivot_wider(names_from = variable, values_from = valor) |> 
  arrange(codigo_comuna)

datos |> select(-starts_with("codigo"))

# A tibble: 117 × 5
   nombre_region nombre_comuna   Distancia a plazas púb…¹ Número de víctimas m…²
   <chr>         <chr>                              <dbl>                  <dbl>
 1 Tarapacá      Iquique                             282.                   3.52
 2 Tarapacá      Alto Hospicio                       275.                   9.70
 3 Antofagasta   Antofagasta                         426.                   7.84
 4 Antofagasta   Calama                              274.                   8.28
 5 Atacama       Copiapó                             245.                   8.66
 6 Atacama       Tierra Amarilla                     289.                  41.7 
 7 Atacama       Vallenar                            241.                  12.2 
 8 Coquimbo      La Serena                           303.                   6.29
 9 Coquimbo      Coquimbo                            291.                  10.3 
10 Coquimbo      Ovalle                              275.                  18.0 
# ℹ 107 more rows
# ℹ abbreviated names: ¹​`Distancia a plazas públicas`,
#   ²​`Número de víctimas mortales en siniestros de tránsito por cada 100.000 habitantes`
# ℹ 1 more variable:
#   `Porcentaje de cobertura de la red de ciclovía sobre la red vial` <dbl>
…
