Visualizando texto como nubes de palabras en R | Bastián Olea
…
library(dplyr)

Warning: package 'dplyr' was built under R version 4.4.3

# dirección web donde se encuentran los datos
url_datos <- "https://raw.githubusercontent.com/bastianolea/prensa_chile/refs/heads/main/prensa_datos_muestra.csv"

# lectura de los datos ubicados en internet
noticias <- readr::read_csv2(url_datos)

noticias |> select(titulo, cuerpo, fecha)

# A tibble: 10,000 × 3
   titulo                                                      cuerpo fecha     
   <chr>                                                       <chr>  <date>    
 1 "Hombre de 66 años fue asesinado en plena vía pública en M… "El h… 2024-07-21
 2 "Revive el cuarto capítulo de Indecisos: Candidatos a alca… "Este… 2024-09-03
 3 "Menos personas circulando y miedo de los residentes: Así … "Poca… 2024-04-08
 4 "CEO de Walmart Chile sostiene que si la empresa no da “se… "Hace… 2024-12-22
 5 "Pdte. Boric entregó mensaje por la muerte de Piñera y rec… "El p… 2024-02-06
 6 "Encuentran dos cadáveres en un canal de regadío en Pirque" "Pers… 2024-07-13
 7 "Magisterio denuncia \"abandono de la educación pública\" … "Carl… 2024-02-21
 8 "“El día que la democracia triunfó sobre la dictadura”: Mi… "Los … 2024-10-05
 9 "Accidente de tránsito deja un fallecido y tres heridos en… "En h… 2024-12-22
10 "Dos personas resultan baleadas tras intentar evitar asalt… "Aton… 2024-11-02
# ℹ 9,990 more rows

En este conjunto de datos, los textos completos de los documentos vienen en la columna cuerpo:

noticias |> select(cuerpo)

# A tibble: 10,000 × 1
   cuerpo                                                                       
   <chr>                                                                        
 1 "El hecho ocurrió en horas de la madrugada, cuando la víctima fue abordada p…
 2 "Este martes 3 de septiembre fue el cuarto capítulo de la nueva temporada de…
 3 "Pocas personas circulan en la toma \"Nuevo Amanecer\" de Cerrillos, luego d…
 4 "Hace unos días, Walmart Chile anunció un plan de inversión en Chile de US$1…
 5 "El presidente Gabriel Boric lamentó el fallecimiento del expresidente Sebas…
 6 "Personal del Grupo de Operaciones Policiales Especiales (GOPE) de Carabiner…
 7 "Carlos Rodríguez, presidente regional de los Profesores, aseguró que el Min…
 8 "Los ministros de Educación, Nicolás Cataldo, y del Interior, Carolina Tohá,…
 9 "En horas de la mañana de este domingo, ocurrió un lamentable accidente en l…
10 "Aton / Imagen Referencial Dos personas resultaron heridas a bala en un inte…
# ℹ 9,990 more rows
…
palabras <- noticias |> 
  # tokenizar columna que contiene los documentos
  unnest_tokens(input = cuerpo, drop = FALSE,
                output = palabra, 
                token = "words",
                # limpieza mínima de texto
                to_lower = TRUE,
                strip_punct = TRUE,
                strip_numeric = TRUE) |> 
  # eliminar stopwords o palabras vacías
  filter(!palabra %in% stopwords::stopwords("spanish"))

palabras |> select(palabra, cuerpo)

# A tibble: 1,817,901 × 2
   palabra   cuerpo                                                             
   <chr>     <chr>                                                              
 1 hecho     "El hecho ocurrió en horas de la madrugada, cuando la víctima fue …
 2 ocurrió   "El hecho ocurrió en horas de la madrugada, cuando la víctima fue …
 3 horas     "El hecho ocurrió en horas de la madrugada, cuando la víctima fue …
 4 madrugada "El hecho ocurrió en horas de la madrugada, cuando la víctima fue …
 5 víctima   "El hecho ocurrió en horas de la madrugada, cuando la víctima fue …
 6 abordada  "El hecho ocurrió en horas de la madrugada, cuando la víctima fue …
 7 grupo     "El hecho ocurrió en horas de la madrugada, cuando la víctima fue …
 8 sujetos   "El hecho ocurrió en horas de la madrugada, cuando la víctima fue …
 9 atacó     "El hecho ocurrió en horas de la madrugada, cuando la víctima fue …
10 arma      "El hecho ocurrió en horas de la madrugada, cuando la víctima fue …
# ℹ 1,817,891 more rows

Luego de tokenización, vemos que la columna que contiene el texto completo de los documentos está acompañada de una nueva variable que contiene cada palabra por separado. De esta forma puedes continuar analizando el documento con palabras individuales, pero teniendo como referencia al texto completo donde aparece cada palabra si es que lo necesitas.

A partir de la variable de palabras individuales, vamos a hacer un conteo de las palabras más frecuentes:

palabras_conteo <- palabras |> 
  count(palabra, sort = TRUE)

palabras_conteo

# A tibble: 74,911 × 2
   palabra      n
   <chr>    <int>
 1 chile     7208
 2 años      5457
 3 según     5071
 4 parte     4952
 5 personas  4921
 6 si        4912
 7 región    4830
 8 ser       4656
 9 país      4628
10 gobierno  4599
# ℹ 74,901 more rows
…
