…
``` r
library(dplyr)
library(tidyr)

anscombe_largo <- anscombe |> 
  pivot_longer(cols = everything(),
               names_to = "grupo",
               values_to = "valor") |> 
  separate(grupo, sep = 1, into = c("variable", "grupo"))

anscombe_largo
```

    # A tibble: 88 × 3
       variable grupo valor
       <chr>    <chr> <dbl>
     1 x        1     10   
     2 x        2     10   
     3 x        3     10   
     4 x        4      8   
     5 y        1      8.04
     6 y        2      9.14
     7 y        3      7.46
     8 y        4      6.58
     9 x        1      8   
    10 x        2      8   
    # ℹ 78 more rows
…
# pivotar los valores hacia el ancho, creando dos columnas según `variable`
anscombe_ancho <- anscombe_ids |> 
  pivot_wider(names_from = variable, values_from = valor) |> 
  arrange(grupo, id) |> # ordenar
  select(-id) # sacar variable id

anscombe_ancho
```

    # A tibble: 44 × 3
       grupo     x     y
       <chr> <dbl> <dbl>
     1 1        10  8.04
     2 1         8  6.95
     3 1        13  7.58
     4 1         9  8.81
     5 1        11  8.33
     6 1        14  9.96
     7 1         6  7.24
     8 1         4  4.26
     9 1        12 10.8 
    10 1         7  4.82
    # ℹ 34 more rows
…
