Crea un mapa de Chile desde datos geoespaciales oficiales en R | Bastián Olea
…
class(comunas)

[1] "sf"         "tbl_df"     "tbl"        "data.frame"

Si lo imprimimos en la consola, confirmamos que los objetos cargados desde los shapefiles son tablas de datos que arriba dicen Simple feature collection; es decir, son tablas de datos que además tienen información geográfica.

comunas

Simple feature collection with 345 features and 7 fields
Geometry type: MULTIPOLYGON
Dimension:     XY
Bounding box:  xmin: -109.4549 ymin: -56.53777 xmax: -66.41559 ymax: -17.4984
Geodetic CRS:  GCS_SIRGAS-Chile
# A tibble: 345 × 8
   cut_reg cut_prov cut_com region                   provincia comuna superficie
   <chr>   <chr>    <chr>   <chr>                    <chr>     <chr>       <dbl>
 1 11      113      11302   Aysén del General Carlo… Capitán … O'Hig…      7785.
 2 05      055      05503   Valparaíso               Quillota  Hijue…       268.
 3 08      083      08308   Biobío                   Biobío    Quila…      1124.
 4 09      092      09209   La Araucanía             Malleco   Renai…       265.
 5 09      092      09202   La Araucanía             Malleco   Colli…      1306.
 6 15      152      15201   Arica y Parinacota       Parinaco… Putre       5890.
 7 07      071      07110   Maule                    Talca     San R…       263.
 8 08      083      08311   Biobío                   Biobío    Santa…      1251.
 9 12      121      12102   Magallanes y de la Antá… Magallan… Lagun…      3568.
10 11      113      11303   Aysén del General Carlo… Capitán … Tortel     19991.
# ℹ 335 more rows
# ℹ 1 more variable: geometry <MULTIPOLYGON [°]>
…
