Gráfico de mis artistas y géneros musicales más escuchados según Last.fm | Bastián Olea
…
Para obtener los datos de mis canciones escuchadas usé 
el paquete {lastfmR}:

devtools::install_github("ppatrzyk/lastfmR")

library(lastfmR)

La obtención de los datos de Last.fm se hace con las siguientes funciones:

scrobbles <- get_scrobbles(user = "bastimapache")
artist_info <- get_library_info(user = "bastimapache")

scrobbles

# A tibble: 17,000 × 4
   date                artist                    track             album        
   <POSIXt>            <chr>                     <chr>             <chr>        
 1 2025-07-27 18:38:27 Bullet for My Valentine   Tears Don't Fall  The Poison   
 2 2025-07-25 15:35:20 Premiata Forneria Marconi Geranio           Per un amico 
 3 2025-07-25 15:13:14 Premiata Forneria Marconi Il Banchetto      Per un amico 
 4 2025-07-25 15:06:31 Premiata Forneria Marconi Per Un Amico      Per un amico 
 5 2025-07-25 15:01:41 Premiata Forneria Marconi Generale          Per un amico 
 6 2025-07-25 14:48:01 Premiata Forneria Marconi Appena un po'     Per un amico 
 7 2025-07-25 13:46:32 The Body & OAA            Docile Gift       Enemy of Love
 8 2025-07-25 13:43:07 The Body & OAA            Ignorant Messiah  Enemy of Love
 9 2025-07-25 13:40:40 The Body & OAA            Miserable Freedom Enemy of Love
10 2025-07-25 13:37:31 The Body & OAA            Barren of Joy     Enemy of Love
# ℹ 16,990 more rows

artist_info

# A tibble: 3,882 × 5
   artist           user_scrobbles global_listeners global_scrobbles artist_tags
   <chr>                     <int>            <int>            <int> <chr>      
 1 Opeth                      5006          1066799        110560572 Progressiv…
 2 Magma                      4905           158887          3353010 Zeuhl; Pro…
 3 Between the Bur…           4519           411709         27305709 Progressiv…
 4 Erik Satie                 3439          1690933         35397288 Classical;…
 5 ASIAN KUNG-FU G…           3318           601332         33012597 J-rock; ja…
 6 Gojira                     3289           898440         71798696 death meta…
 7 Boris                      3178           538299         21493173 drone; Sto…
 8 Rosetta                    3148           140465          6019868 Post-Metal…
 9 The Beatles                3019          5830439        885054050 classic ro…
10 Mastodon                   3006          1139246         72786659 Progressiv…
# ℹ 3,872 more rows
…
Filtramos todas las canciones escuchadas para que solamente queden las que corresponden a uno de estos 15 géneros más escuchados, y dejamos solamente la primera etiqueta de cada canción:

scrobbles_tags_5 <- scrobbles_tags_4 |> 
  filter(tags %in% top_tags) |> 
  group_by(date) |> 
  slice_max(tag_n, n = 1)

scrobbles_tags_5

# A tibble: 14,127 × 6
# Groups:   date [14,110]
   date                artist       track              album       tags  tag_n
   <POSIXt>            <chr>        <chr>              <chr>       <chr> <int>
 1 2023-11-06 13:23:28 Dreamcrusher INCINERATOR        INCINERATOR noise  2633
 2 2023-11-06 13:29:44 Dreamcrusher Cathedral Of Moths INCINERATOR noise  2633
 3 2023-11-06 13:29:44 Dreamcrusher Pseudogender       INCINERATOR noise  2633
 4 2023-11-06 13:36:34 Dreamcrusher Pseudogender       INCINERATOR noise  2633
 5 2023-11-06 13:36:34 Dreamcrusher Vulpeculae Freeze  INCINERATOR noise  2633
 6 2023-11-06 13:44:43 Dreamcrusher Vulpeculae Freeze  INCINERATOR noise  2633
 7 2023-11-06 13:44:43 Dreamcrusher Bane               INCINERATOR noise  2633
 8 2023-11-06 13:57:07 Merzbow      Promotion Man      Merzbeat    noise  2633
 9 2023-11-06 13:57:07 Dreamcrusher Bane               INCINERATOR noise  2633
10 2023-11-06 14:06:04 Pharmakon    No Natural Order   Contact     noise  2633
# ℹ 14,117 more rows

Finalmente hacemos el conteo de géneros musicales por semana:

scrobbles_tags_6 <- scrobbles_tags_5 |> 
  mutate(date = floor_date(date, "week")) |> 
  count(date, tags)

scrobbles_tags_6

# A tibble: 858 × 3
# Groups:   date [90]
   date                tags                  n
   <dttm>              <chr>             <int>
 1 2023-11-05 00:00:00 ambient              23
 2 2023-11-05 00:00:00 avant-garde           1
 3 2023-11-05 00:00:00 black metal          60
 4 2023-11-05 00:00:00 death metal          16
 5 2023-11-05 00:00:00 grindcore             1
 6 2023-11-05 00:00:00 jazz                 21
 7 2023-11-05 00:00:00 noise                35
 8 2023-11-05 00:00:00 post-rock             4
 9 2023-11-05 00:00:00 progressive metal    12
10 2023-11-05 00:00:00 sludge               17
# ℹ 848 more rows
…
