Transformación de datos entre formato _ancho_ y _largo_ con {tidyr} | Bastián Olea
…
Se pueden usar todas las funciones de {tidyselect} para seleccionar columnas según su texto, formato, y más:

# seleccionar columnas que empiezan con cierto texto
desarrollo |> 
  pivot_longer(cols = starts_with("20"),
               names_to = "año",
               values_to = "índice")

# seleccionar columnas que son numéricas
desarrollo |> 
  pivot_longer(cols = where(is.numeric),
               names_to = "año",
               values_to = "índice")

# A tibble: 40 × 3
   pais      año   índice
   <chr>     <chr>  <dbl>
 1 Chile     2023   0.878
 2 Chile     2022   0.869
 3 Chile     2021   0.865
 4 Chile     2019   0.867
 5 Argentina 2023   0.865
 6 Argentina 2022   0.858
 7 Argentina 2021   0.847
 8 Argentina 2019   0.861
 9 Uruguay   2023   0.862
10 Uruguay   2022   0.852
# ℹ 30 more rows
…
