Procesamiento de datos multiprocesador en R con {furrr} | Bastián Olea
…
Usaremos un conjunto de datos que contiene 
10.000 noticias de prensa digital chilena; es decir, que contiene muchísimo texto. Para hacer el ejemplo más ilustrativo de un problema de procesamiento de grandes volúmenes de datos, multiplicaremos la base de datos para que sea 20 veces más grande, y así se entienda la necesidad de optimización.

# cargar datos desde repositorio
prensa <- readr::read_csv2("https://github.com/bastianolea/prensa_chile/raw/main/datos/prensa_datos_muestra.csv")
# para más información: https://github.com/bastianolea/prensa_chile

# multiplicar cantidad de datos
prensa_b <- rep(list(prensa), 20) |> purrr::list_rbind()

# ver datos
prensa_b

# A tibble: 200,000 × 4
   titulo                                               cuerpo fuente fecha     
   <chr>                                                <chr>  <chr>  <date>    
 1 "Hombre de 66 años fue asesinado en plena vía públi… "El h… Coope… 2024-07-21
 2 "Revive el cuarto capítulo de Indecisos: Candidatos… "Este… Megan… 2024-09-03
 3 "Menos personas circulando y miedo de los residente… "Poca… Megan… 2024-04-08
 4 "CEO de Walmart Chile sostiene que si la empresa no… "Hace… The C… 2024-12-22
 5 "Pdte. Boric entregó mensaje por la muerte de Piñer… "El p… CNN C… 2024-02-06
 6 "Encuentran dos cadáveres en un canal de regadío en… "Pers… Publi… 2024-07-13
 7 "Magisterio denuncia 'abandono de la educación públ… "Carl… Coope… 2024-02-21
 8 "“El día que la democracia triunfó sobre la dictadu… "Los … CNN C… 2024-10-05
 9 "Accidente de tránsito deja un fallecido y tres her… "En h… T13    2024-12-22
10 "Dos personas resultan baleadas tras intentar evita… "Aton… Emol   2024-11-02
# ℹ 199,990 more rows
…
